Chapter 2 Week 1 - Data manipulation and EDA | Data Analysis and Visualization - Practicals
…
## # A tibble: 5 x 3
##   student_number grade programme
##   <chr>          <dbl> <chr>    
## 1 6352581         8.09 A        
## 2 6165611         8.02 A        
## 3 4133949         8.40 A        
## 4 4011659         8.94 A        
## 5 6553913         8.24 A

2.5.3 Exercise 13

students %>%
  arrange(programme, desc(grade))

## # A tibble: 37 x 3
##    student_number grade programme
##    <chr>          <dbl> <chr>    
##  1 4011659         8.94 A        
##  2 4133949         8.40 A        
##  3 6553913         8.24 A        
##  4 6352581         8.09 A        
##  5 6165611         8.02 A        
##  6 6997130         7.75 A        
##  7 4862862         7.71 A        
##  8 6562582         7.57 A        
##  9 4483974         7.46 A        
## 10 5128923         7.26 A        
## # … with 27 more rows

2.5.4 Exercise 14

students %>%
  select(student_number, programme)

## # A tibble: 37 x 2
##    student_number programme
##    <chr>          <chr>    
##  1 5117250        A        
##  2 6562582        A        
##  3 6000241        B        
##  4 4862862        A        
##  5 6561723        B        
##  6 5625916        B        
##  7 4096023        A        
##  8 6114656        A        
##  9 5265402        B        
## 10 5977188        B        
## # … with 27 more rows
…
